x1,x2,x3,y,class
-4,-6,-9,83,1
9,6,-1,4,1
-1,-10,3,18,1
-2,10,0,-12,0
1,0,-10,101,1
-4,6,-3,-1,0
-5,3,-3,1,1
-1,10,3,-2,0
0,-3,10,103,1
4,-7,2,15,1
10,9,-3,10,1
8,10,5,23,1
4,-4,-8,72,1
6,-4,-2,14,1
-8,-1,-9,74,1
-2,-7,8,69,1
4,8,4,12,1
-1,-6,9,86,1
7,9,-5,23,1
10,10,-4,16,1
-4,-9,-2,9,1
10,7,8,67,1
7,6,-6,37,1
-5,-1,6,32,1
8,1,-3,16,1
8,10,5,23,1
4,-2,-4,22,1
-7,-9,-8,66,1
-6,0,0,-6,0
1,-7,-3,17,1
-2,6,9,73,1
-5,6,4,5,1
3,2,-7,50,1
3,1,2,6,1
-3,-8,-4,21,1
-9,5,5,11,1
4,-4,2,12,1
3,-1,2,8,1
-9,10,-10,81,1
2,9,-1,-6,0
-10,-7,4,13,1
6,8,-7,47,1
5,-9,4,30,1
10,-7,-4,33,1
-10,-1,-1,-8,0
6,1,8,69,1
9,6,-9,84,1
7,10,0,-3,0
-4,-5,-5,26,1
8,-8,-10,116,1
-8,0,-10,92,1
0,-7,4,23,1
10,10,-8,64,1
-9,-1,-5,17,1
2,-2,4,20,1
-4,-6,-5,27,1
-3,-8,10,105,1
-4,0,-9,77,1
-5,0,-2,-1,0
-8,-1,6,29,1
-4,-5,10,101,1
-6,1,0,-7,0
-9,-1,3,1,1
8,-9,10,117,1
4,6,7,47,1
5,9,-8,60,1
-7,-2,8,59,1
9,6,-4,19,1
-4,10,-7,35,1
-4,7,4,5,1
4,-8,5,37,1
-1,3,0,-4,0
6,-5,-10,111,1
6,-4,-8,74,1
3,-5,1,9,1
1,3,0,-2,0
6,7,-2,3,1
4,7,3,6,1
-4,-9,-5,30,1
6,-8,7,63,1
-1,-10,3,18,1
10,10,6,36,1
-9,9,-8,46,1
10,-10,-1,21,1
-10,7,4,-1,0
1,-7,-3,17,1
-6,-6,3,9,1
-10,10,-5,5,1
-8,-5,-3,6,1
4,-2,4,22,1
1,-5,-4,22,1
5,2,-3,12,1
-10,-6,-4,12,1
-9,-7,8,62,1
-7,10,-4,-1,0
-3,0,-2,1,1
-7,9,-2,-12,0
5,10,-1,-4,0
-2,-2,-2,4,1
5,2,9,84,1
-9,6,3,-6,0
-5,5,-8,54,1
8,7,-7,50,1
7,-6,3,22,1
3,-3,-5,31,1
-10,-9,8,63,1
5,10,-9,76,1
3,-3,6,42,1
-4,6,-6,26,1
-2,-3,4,17,1
-4,0,4,12,1
7,-10,3,26,1
-9,2,-8,53,1
9,-9,-10,118,1
6,-9,-1,16,1
5,-1,8,70,1
1,7,-7,43,1
-5,5,-2,-6,0
-2,6,-10,92,1
1,3,-1,-1,0
-6,-8,1,3,1
2,6,-3,5,1
-10,6,-8,48,1
-4,-9,0,5,1
6,4,0,2,1
-1,6,1,-6,0
-7,5,4,4,1
10,9,-10,101,1
0,-6,-8,70,1
-7,-4,4,13,1
-3,-8,10,105,1
-9,2,-8,53,1
-10,-5,-2,-1,0
6,6,-8,64,1
-9,-8,-4,15,1
10,8,6,38,1
1,-8,5,34,1
-9,-6,7,46,1
-4,2,-2,-2,0
-2,-4,9,83,1
-2,-4,6,38,1
-1,5,10,94,1
-2,10,1,-11,0
-1,-9,9,89,1
4,-1,-3,14,1
7,8,0,-1,0
10,-6,-7,65,1
-8,0,0,-8,0
-7,-3,3,5,1
-6,-1,-7,44,1
7,-1,2,12,1
-9,-8,-6,35,1
-4,-8,-1,5,1
-6,9,-8,49,1
10,0,4,26,1
0,0,2,4,1
10,3,9,88,1
-2,-8,-5,31,1
6,8,2,2,1
8,-2,4,26,1
-7,-1,7,43,1
10,-8,-8,82,1
10,7,6,39,1
4,1,6,39,1
10,-10,3,29,1
-7,3,-5,15,1
-8,0,5,17,1
6,-3,4,25,1
-6,-10,-10,104,1
9,0,7,58,1
-8,1,-2,-5,0
5,2,6,39,1
2,-2,2,8,1
9,5,2,8,1
-3,6,10,91,1
7,-6,6,49,1
-4,1,1,-4,0
-8,0,-7,41,1
7,4,10,103,1
-2,10,1,-11,0
0,-4,10,104,1
5,-5,0,10,1
10,-5,-3,24,1
6,-2,-5,33,1
-4,-9,-3,14,1
1,3,-8,62,1
7,-8,2,19,1
-8,-8,-7,49,1
-7,10,-1,-16,0
-3,-6,-4,19,1
-2,-7,-1,6,1
0,-9,-7,58,1
-2,9,5,14,1
-1,4,-6,31,1
1,1,9,81,1
6,-10,-5,41,1
-7,2,-1,-8,0
-7,7,-3,-5,0
3,-3,5,31,1
1,-2,7,52,1
-7,0,4,9,1
-9,8,8,47,1
-4,-7,-4,19,1
-6,8,-7,35,1
-10,4,-6,22,1
-4,-3,-4,15,1
0,4,-10,96,1
8,-10,5,43,1
-6,4,5,15,1
3,-4,7,56,1
-2,10,-4,4,1
2,-3,10,105,1
4,1,3,12,1
-5,2,-9,74,1
-3,6,3,0,1
-3,7,-1,-9,0
5,-5,4,26,1
1,2,-7,48,1
-6,0,-2,-2,0
4,-6,-9,91,1
0,-10,2,14,1
4,-9,10,113,1
-7,-8,9,82,1
8,-3,-1,12,1
3,2,5,26,1
-1,2,1,-2,0
-9,-8,-2,3,1
5,-1,4,22,1
6,4,-8,66,1
-10,1,3,-2,0
-6,8,-7,35,1
3,-3,1,7,1
7,6,1,2,1
-5,-5,-4,16,1
-6,-1,9,76,1
-1,3,-2,0,1
-7,-2,-7,44,1
5,7,3,7,1
6,0,-6,42,1
3,8,1,-4,0
-5,10,-7,34,1
8,-5,4,29,1
0,1,-1,0,1
-2,-9,-6,43,1
7,9,2,2,1
5,-5,3,19,1
7,-8,10,115,1
2,7,4,11,1
-9,-9,8,64,1
10,4,-7,55,1
9,-8,8,81,1
-7,7,0,-14,0
2,10,-10,92,1
-4,-7,4,19,1
10,-10,5,45,1
-3,-10,6,43,1
-5,-2,9,78,1
6,-7,5,38,1
0,-6,0,6,1
-1,-7,5,31,1
-10,2,9,69,1
-10,10,6,16,1
-4,-2,10,98,1
-8,9,-6,19,1
5,0,-3,14,1
10,10,-10,100,1
-8,2,-4,6,1
-5,2,6,29,1
-10,3,-2,-9,0
2,1,5,26,1
-6,8,-6,22,1
-4,-8,10,104,1
-8,7,2,-11,0
-3,-7,5,29,1
-4,-6,4,18,1
10,0,5,35,1
9,-1,-2,14,1
-6,-1,-8,59,1
-7,-4,-6,33,1
-7,7,9,67,1
-2,-10,9,89,1
9,-6,9,96,1
-5,0,10,95,1
-5,-8,3,12,1
-6,-5,-10,99,1
-6,-8,-7,51,1
-2,0,0,-2,0
4,-5,5,34,1
8,2,-6,42,1
6,-5,4,27,1
-3,6,1,-8,0
-4,5,-1,-8,0
-1,-9,-2,12,1
5,-4,0,9,1
-10,-10,7,49,1
-10,8,7,31,1
-1,4,-6,31,1
5,0,4,21,1
-8,4,-8,52,1
-2,1,-3,6,1
5,-2,-4,23,1
8,8,-9,81,1
-9,3,-8,52,1
7,3,5,29,1
-5,-5,-1,1,1
3,-7,4,26,1
-3,-1,9,79,1
-5,-6,-8,65,1
-7,10,-2,-13,0
10,-9,-7,68,1
-10,7,-10,83,1
-4,6,-4,6,1
6,-4,-9,91,1
4,9,3,4,1
-8,3,6,25,1
-1,-3,9,83,1
-3,9,2,-8,0
-1,-7,10,106,1
-3,6,10,91,1
-3,3,-9,75,1
-2,-2,-3,9,1
9,7,4,18,1
3,9,-3,3,1
6,9,6,33,1
1,-4,-10,105,1
0,3,3,6,1
7,-8,-9,96,1
5,10,-5,20,1
1,2,8,63,1
-10,-10,-9,81,1
-9,-10,-5,26,1
6,5,1,2,1
-3,9,4,4,1
6,1,-1,6,1
6,-6,-5,37,1
10,5,2,9,1
-10,0,-6,26,1
-4,5,-9,72,1
4,0,5,29,1
-4,10,-3,-5,0
-7,4,1,-10,0
-9,-10,9,82,1
-3,4,-4,9,1
-3,2,1,-4,0
-3,9,10,88,1
1,0,9,82,1
-4,4,-2,-4,0
10,2,5,33,1
5,-6,-3,20,1
-8,5,10,87,1
7,-8,10,115,1
-7,-9,-6,38,1
-2,-5,5,28,1
5,-1,-4,22,1
-1,-10,-4,25,1
7,-3,-10,110,1
-8,10,-7,31,1
-7,6,2,-9,0
-5,6,3,-2,0
-9,10,-3,-10,0
-2,4,2,-2,0
7,-7,2,18,1
3,-4,-3,16,1
-10,9,1,-18,0
-7,7,5,11,1
2,-2,-4,20,1
-4,-3,-10,99,1
-4,-6,-9,83,1
8,3,-2,9,1
-8,-3,9,76,1
-6,7,2,-9,0
-7,-8,-4,17,1
-4,-1,-4,13,1
-4,-8,3,13,1
-3,10,-6,23,1
-4,-3,-4,15,1
7,5,-3,11,1
-5,2,-6,29,1
4,-9,-10,113,1
4,-10,1,15,1
-10,10,5,5,1
-10,2,-3,-3,0
-5,-8,1,4,1
2,-9,-3,20,1
-10,-6,6,32,1
-2,8,-10,90,1
9,-2,-1,12,1
3,7,2,0,1
-5,-4,-4,15,1
3,0,-2,7,1
0,7,-2,-3,0
0,-9,9,90,1
-10,5,-9,66,1
-8,5,2,-9,0
2,-2,9,85,1
-4,2,-5,19,1
-9,4,-10,87,1
-8,-1,2,-3,0
-8,6,-8,50,1
-10,1,1,-10,0
9,0,2,13,1
7,1,-9,87,1
4,6,5,23,1
-2,-9,3,16,1
2,-8,-6,46,1
-7,-7,6,36,1
-10,-10,-9,81,1
-5,1,4,10,1
0,9,1,-8,0
8,-6,0,14,1
-3,4,-2,-3,0
9,3,-4,22,1
-4,-4,-5,25,1
1,0,3,10,1
6,-6,-4,28,1
6,8,-10,98,1
1,-10,8,75,1
-7,-9,-7,51,1
-5,-4,0,-1,0
4,3,7,50,1
-3,6,-7,40,1
-10,-2,-9,73,1
5,5,8,64,1
3,-8,0,11,1
-8,-9,1,2,1
6,7,-10,99,1
-5,6,10,89,1
7,-2,-10,109,1
-4,4,3,1,1
3,-9,3,21,1
2,10,-1,-7,0
2,-8,9,91,1
9,3,-1,7,1
0,6,-1,-5,0
-9,-9,-4,16,1
-8,3,7,38,1
-2,3,4,11,1
-4,8,-2,-8,0
1,2,6,35,1
-7,9,0,-16,0
-5,-5,-8,64,1
-9,5,2,-10,0
1,10,10,91,1
-7,-7,-6,36,1
1,2,3,8,1
-4,-9,-5,30,1
1,0,1,2,1
5,4,4,17,1
3,7,2,0,1
10,2,-7,57,1
7,6,-1,2,1
-10,-4,-1,-5,0
0,5,9,76,1
-2,-1,4,15,1
-8,-6,-7,47,1
-3,-6,-3,12,1
3,-7,-5,35,1
4,10,-4,10,1
3,2,1,2,1
10,5,-2,9,1
-5,10,-4,1,1
-8,8,-4,0,1
-1,-2,-5,26,1
-9,-7,1,-1,0
-9,-3,2,-2,0
8,-4,-1,13,1
6,-4,2,14,1
-5,-10,-3,14,1
10,-2,-2,16,1
-7,-8,8,65,1
-1,6,-6,29,1
3,-6,9,90,1
8,7,-3,10,1
8,-4,1,13,1
10,3,0,7,1
0,6,-4,10,1
-4,4,-10,92,1
-5,-3,-10,98,1
-6,-1,-5,20,1
10,10,-6,36,1
1,10,6,27,1
8,4,3,13,1
0,7,-4,9,1
-8,-5,-2,1,1
9,6,-4,19,1
-1,2,-3,6,1
-2,-6,3,13,1
10,8,9,83,1
10,4,9,87,1
3,-8,7,60,1
10,3,0,7,1
7,-5,7,61,1
-4,7,-7,38,1
7,-2,7,58,1
-2,-8,9,87,1
8,-4,9,93,1
2,-10,-10,112,1
5,3,-3,11,1
-7,1,-5,17,1
-4,7,-3,-2,0
-2,0,5,23,1
10,-8,-2,22,1
-8,-10,9,83,1
4,-10,8,78,1
-9,-3,10,94,1
-10,5,-5,10,1
8,-5,-4,29,1
4,10,-4,10,1
-6,-10,4,20,1
-2,9,4,5,1
-6,-7,-4,17,1
-7,2,6,27,1
0,10,5,15,1
9,2,2,11,1
-8,-4,-10,96,1
-9,-4,-4,11,1
-9,10,0,-19,0
-3,3,-9,75,1
5,-4,-4,25,1
1,-7,5,33,1
0,-7,3,16,1
-8,3,6,25,1
0,6,9,75,1
-7,1,4,8,1
3,-10,-9,94,1
-5,0,-3,4,1
-6,-9,-9,84,1
-3,10,-7,36,1
5,3,-7,51,1
1,-7,7,57,1
1,-2,2,7,1
7,7,-3,9,1
4,5,-3,8,1
9,2,6,43,1
-4,-1,-10,97,1
9,1,7,57,1
5,-6,-2,15,1
7,8,5,24,1
9,-6,9,96,1
8,7,-6,37,1
-1,0,1,0,1
6,-5,2,15,1
2,3,5,24,1
-2,6,-3,1,1
4,10,-1,-5,0
3,2,-3,10,1
8,6,1,3,1
4,9,7,44,1
2,-9,8,75,1
-1,-3,3,11,1
0,-7,-6,43,1
-10,10,6,16,1
-2,-4,-4,18,1
4,-7,-5,36,1
7,-8,2,19,1
7,-2,-7,58,1
-8,4,-2,-8,0
6,-1,-3,16,1
2,8,7,43,1
5,3,6,38,1
4,5,5,24,1
-8,7,-3,-6,0
2,-7,10,109,1
-7,-6,5,24,1
-9,0,0,-9,0
0,3,-6,33,1
8,8,-4,16,1
-5,-10,2,9,1
-4,-8,-7,53,1
0,-6,7,55,1
0,1,4,15,1
3,6,-8,61,1
-2,5,-7,42,1
-8,3,5,14,1
6,8,3,7,1
3,1,-9,83,1
1,-5,6,42,1
-3,-3,3,9,1
0,7,-9,74,1
3,-6,-2,13,1
7,1,6,42,1
1,4,4,13,1
0,6,-1,-5,0
8,10,5,23,1
-2,9,-5,14,1
8,-6,9,95,1
-3,-8,9,86,1
-6,7,2,-9,0
7,-2,3,18,1
0,4,-3,5,1
6,10,4,12,1
-10,-4,-1,-5,0
7,-2,-7,58,1
-2,6,-10,92,1
-5,5,7,39,1
6,-6,-4,28,1
-9,8,6,19,1
-1,-7,6,42,1
-7,8,10,85,1
-10,8,10,82,1
9,9,5,25,1
7,-8,1,16,1
-2,-3,4,17,1
-4,2,2,-2,0
3,5,-3,7,1
-10,-2,2,-4,0
-2,-3,-8,65,1
9,-1,8,74,1
-6,-3,3,6,1
-7,9,-7,33,1
-7,-1,9,75,1
-4,10,-3,-5,0
6,-9,3,24,1
-10,9,9,62,1
-5,1,-7,43,1
4,10,4,10,1
-3,-7,-8,68,1
-3,2,7,44,1
-9,6,4,1,1
3,-3,7,55,1
0,-5,9,86,1
8,3,1,6,1
-7,10,-9,64,1
6,-3,8,73,1
0,0,6,36,1
2,8,9,75,1
-10,6,4,0,1
-6,8,3,-5,0
10,2,0,8,1
-4,9,2,-9,0
0,6,6,30,1
4,-3,9,88,1
0,9,-6,27,1
1,6,0,-5,0
7,-1,-1,9,1
-5,-5,2,4,1
3,-4,9,88,1
-10,-8,-1,-1,0
5,-2,8,71,1
-4,2,-1,-5,0
-10,1,8,53,1
4,-5,1,10,1
8,7,8,65,1
0,5,-7,44,1
-7,-2,-4,11,1
-2,10,-3,-3,0
7,-9,9,97,1
8,8,8,64,1
6,-10,2,20,1
-4,5,-8,55,1
5,2,4,19,1
4,-4,10,108,1
5,-8,10,113,1
-8,6,-8,50,1
-2,-10,-4,24,1
2,-7,8,73,1
-9,-1,-3,1,1
5,-7,9,93,1
4,8,0,-4,0
4,5,10,99,1
9,5,-4,20,1
-8,2,6,26,1
0,-3,-9,84,1
-2,6,-2,-4,0
1,-9,-2,14,1
6,-8,0,14,1
4,9,-2,-1,0
-1,8,10,91,1
2,-5,-2,11,1
-4,-4,8,64,1
-6,-6,3,9,1
7,-5,6,48,1
6,-9,-1,16,1
-7,2,3,0,1
-9,-3,3,3,1
-6,-7,-6,37,1
-7,-3,7,45,1
0,-6,-9,87,1
-7,-3,9,77,1
9,-5,4,30,1
-3,0,7,46,1
-2,-2,7,49,1
-3,-7,3,13,1
-3,8,-2,-7,0
7,3,9,85,1
6,6,3,9,1
-4,8,7,37,1
7,-2,-4,25,1
10,-7,7,66,1
5,-4,-7,58,1
-5,-8,9,84,1
-7,-9,-6,38,1
-6,10,-8,48,1
9,8,4,17,1
7,1,6,42,1
6,6,-10,100,1
10,3,2,11,1
-6,-10,-10,104,1
2,3,5,24,1
-5,1,-8,58,1
-2,4,-4,10,1
1,-2,-10,103,1
-5,1,-4,10,1
-2,-3,-4,17,1
10,10,0,0,1
-1,4,-5,20,1
10,3,0,7,1
6,3,-8,67,1
3,6,-4,13,1
0,7,5,18,1
-1,3,-6,32,1
6,10,-10,96,1
-4,1,3,4,1
0,-2,-1,3,1
6,-4,-6,46,1
5,1,7,53,1
10,-3,9,94,1
-8,-8,10,100,1
9,6,9,84,1
-8,-7,3,8,1
7,-3,-4,26,1
5,-6,2,15,1
-8,3,-4,5,1
-3,4,4,9,1
5,0,2,9,1
-2,9,-8,53,1
-7,-9,7,51,1
-2,-2,-7,49,1
7,-8,6,51,1
-5,-1,-10,96,1
0,-7,-4,23,1
1,-2,1,4,1
8,-10,9,99,1
4,-9,5,38,1
10,-6,-2,20,1
-1,7,6,28,1
1,1,10,100,1
2,-6,1,9,1
5,8,-3,6,1
-3,10,10,87,1
-9,8,-10,83,1
0,10,-10,90,1
9,8,5,26,1
3,-9,-3,21,1
2,-9,3,20,1
-3,4,-7,42,1
-1,-3,-5,27,1
-7,4,3,-2,0
0,8,4,8,1
9,-9,5,43,1
-9,6,1,-14,0
3,-6,3,18,1
7,4,2,7,1
2,-8,2,14,1
6,-4,9,91,1
10,5,-2,9,1
-7,-3,-2,0,1
10,-6,2,20,1
1,6,-3,4,1
5,-5,-10,110,1
3,0,6,39,1
-2,-4,-9,83,1
10,-1,-4,27,1
5,-5,-10,110,1
4,-9,9,94,1
-5,-2,1,-2,0
0,10,-10,90,1
-6,0,3,3,1
8,-7,3,24,1
-7,-8,3,10,1
-4,-8,9,85,1
-6,3,6,27,1
5,6,-6,35,1
-4,-10,2,10,1
0,5,5,20,1
-4,7,1,-10,0
-6,6,-3,-3,0
-8,1,-7,40,1
-7,10,7,32,1
-8,-3,3,4,1
0,-1,-3,10,1
5,10,3,4,1
-2,-8,6,42,1
-5,4,-7,40,1
-9,-7,9,79,1
4,7,-8,61,1
-10,-10,-2,4,1
2,4,-2,2,1
5,8,9,78,1
-4,1,10,95,1
-8,-3,-8,59,1
-2,-10,-5,33,1
-8,1,1,-8,0
-2,-6,8,68,1
6,4,-9,83,1
-4,-5,-7,50,1
1,1,-9,81,1
8,-9,-3,26,1
9,8,-3,10,1
-1,-9,4,24,1
9,10,4,15,1
6,-5,10,111,1
2,-7,-10,109,1
-8,0,5,17,1
9,7,-2,6,1
9,3,7,55,1
10,0,7,59,1
-10,-3,0,-7,0
6,10,6,32,1
-9,-5,4,12,1
-6,4,-10,90,1
10,-6,-9,97,1
-6,10,-5,9,1
0,-5,1,6,1
-1,4,-1,-4,0
5,5,2,4,1
1,7,6,30,1
-2,-10,10,108,1
-1,7,0,-8,0
-2,-10,9,89,1
-7,7,0,-14,0
10,8,-6,38,1
-7,9,7,33,1
5,-10,-2,19,1
-10,9,1,-18,0
-8,8,-3,-7,0
3,-7,-6,46,1
0,-6,5,31,1
3,-2,8,69,1
3,8,9,76,1
-6,-6,-4,16,1
9,5,4,20,1
-1,-9,7,57,1
-1,-2,-9,82,1
9,9,-6,36,1
-6,5,-3,-2,0
-6,0,-2,-2,0
8,6,-4,18,1
-2,-7,-3,14,1
-6,-8,-3,11,1
-6,0,0,-6,0
6,8,3,7,1
-6,-6,3,9,1
6,-2,-6,44,1
5,-3,-6,44,1
-1,8,7,40,1
-4,6,-4,6,1
-6,3,-6,27,1
1,9,-10,92,1
1,10,-2,-5,0
9,3,8,70,1
6,6,-9,81,1
0,-10,6,46,1
-3,10,7,36,1
-8,6,5,11,1
10,9,3,10,1
10,-1,2,15,1
-8,-8,-4,16,1
-9,-4,6,31,1
4,-6,-4,26,1
10,7,-5,28,1
-1,7,2,-4,0
-7,1,8,56,1
4,-1,9,86,1
-5,7,9,69,1
3,8,1,-4,0
5,-5,0,10,1
-10,8,0,-18,0
10,3,2,11,1
3,-3,0,6,1
-7,4,-1,-10,0
-9,-2,10,93,1
-5,-4,9,80,1
-10,-7,-7,46,1
6,4,8,66,1
1,-4,-7,54,1
-9,0,-6,27,1
2,-1,-7,52,1
-10,-4,-8,58,1
-2,-10,-3,17,1
-4,-6,-7,51,1
0,6,0,-6,0
1,-1,10,102,1
10,4,-2,10,1
-1,-10,9,90,1
3,5,-5,23,1
6,5,4,17,1
1,1,6,36,1
4,4,7,49,1
-5,-3,8,62,1
-1,-2,0,1,1
2,7,3,4,1
9,-1,1,11,1
8,8,-9,81,1
-2,-7,8,69,1
9,-2,10,111,1
-8,-5,-5,22,1
0,-9,7,58,1
-5,-5,6,36,1
2,-5,8,71,1
9,-4,5,38,1
3,-3,-8,70,1
-6,-1,-6,31,1
1,3,-7,47,1
4,9,1,-4,0
9,-3,-3,21,1
3,8,-6,31,1
-5,-8,8,67,1
-8,-9,-5,26,1
-5,4,3,0,1
3,5,5,23,1
5,7,-7,47,1
-8,7,-9,66,1
-1,3,3,5,1
5,-4,-5,34,1
-9,7,4,0,1
-6,8,-10,86,1
3,-6,0,9,1
-6,3,1,-8,0
-5,8,-3,-4,0
3,-3,7,55,1
9,-7,4,32,1
7,-10,5,42,1
9,-1,0,10,1
7,-10,1,18,1
-1,-5,6,40,1
3,-8,8,75,1
-4,-5,-9,82,1
6,10,0,-4,0
-9,4,6,23,1
-4,-10,10,106,1
10,-3,4,29,1
-4,5,8,55,1
4,-2,-9,87,1
-10,6,8,48,1
-4,-3,5,24,1
4,2,9,83,1
4,8,10,96,1
-1,-5,-2,8,1
3,-2,-9,86,1
6,-4,2,14,1
6,-4,-1,11,1
-6,-5,-4,15,1
-9,10,4,-3,0
-10,3,-1,-12,0
-2,-2,1,1,1
3,10,4,9,1
-1,2,5,22,1
-5,8,5,12,1
8,-8,3,25,1
3,5,9,79,1
5,-3,9,89,1
-2,-10,-3,17,1
8,5,0,3,1
-9,2,3,-2,0
-9,8,-5,8,1
10,-1,-1,12,1
9,8,6,37,1
-6,3,7,40,1
7,2,-6,41,1
-5,-2,5,22,1
-9,7,8,48,1
7,5,-7,51,1
-10,-4,8,58,1
-10,0,8,54,1
8,9,2,3,1
-6,6,-3,-3,0
-8,-3,-3,4,1
-1,-5,-9,85,1
9,8,-2,5,1
-9,-10,-1,2,1
-2,-5,-2,7,1
-2,-7,-7,54,1
-6,10,-8,48,1
0,-8,6,44,1
-9,3,-8,52,1
-8,5,-7,36,1
-7,6,-3,-4,0
8,1,-1,8,1
-7,4,-4,5,1
6,-1,-5,32,1
1,-7,2,12,1
9,-2,-4,27,1
5,0,6,41,1
10,-6,-8,80,1
8,9,1,0,1
2,8,6,30,1
8,-4,7,61,1
-4,7,9,70,1
-4,5,8,55,1
0,5,6,31,1
0,-1,-10,101,1
4,5,6,35,1
1,-9,10,110,1
10,4,3,15,1
0,5,0,-5,0
-3,10,-3,-4,0
-6,-10,7,53,1
4,-10,-8,78,1
